<?xml version="1.0" encoding="UTF-8"?>
<!DOCTYPE svg PUBLIC '-//W3C//DTD SVG 1.0//EN'
          'http://www.w3.org/TR/2001/REC-SVG-20010904/DTD/svg10.dtd'>
<svg fill-opacity="0" xmlns:xlink="http://www.w3.org/1999/xlink" color-rendering="auto" color-interpolation="auto" stroke="rgb(0,0,0)" text-rendering="auto" stroke-linecap="square" width="596" stroke-miterlimit="10" stroke-opacity="0" shape-rendering="auto" fill="rgb(0,0,0)" stroke-dasharray="none" font-weight="normal" stroke-width="1" height="318" xmlns="http://www.w3.org/2000/svg" font-family="&apos;Dialog&apos;" font-style="normal" stroke-linejoin="miter" font-size="12" stroke-dashoffset="0" image-rendering="auto"
><!--Generated by the Batik Graphics2D SVG Generator--><defs id="genericDefs"
  /><g
  ><defs id="defs1"
    ><clipPath clipPathUnits="userSpaceOnUse" id="clipPath1"
      ><path d="M-7 -7 L421 -7 L421 323 L-7 323 L-7 -7 Z"
      /></clipPath
      ><clipPath clipPathUnits="userSpaceOnUse" id="clipPath2"
      ><path d="M0 0 L0 297 L410 297 L410 0 Z"
      /></clipPath
      ><clipPath clipPathUnits="userSpaceOnUse" id="clipPath3"
      ><path d="M0 0 L410 0 L410 15 L0 15 L0 0 Z"
      /></clipPath
      ><clipPath clipPathUnits="userSpaceOnUse" id="clipPath4"
      ><path d="M-7 -7 L121 -7 L121 71 L-7 71 L-7 -7 Z"
      /></clipPath
      ><clipPath clipPathUnits="userSpaceOnUse" id="clipPath5"
      ><path d="M0 0 L0 45 L110 45 L110 0 Z"
      /></clipPath
      ><clipPath clipPathUnits="userSpaceOnUse" id="clipPath6"
      ><path d="M0 0 L110 0 L110 15 L0 15 L0 0 Z"
      /></clipPath
      ><clipPath clipPathUnits="userSpaceOnUse" id="clipPath7"
      ><path d="M-7 -7 L111 -7 L111 51 L-7 51 L-7 -7 Z"
      /></clipPath
      ><clipPath clipPathUnits="userSpaceOnUse" id="clipPath8"
      ><path d="M0 0 L0 25 L100 25 L100 0 Z"
      /></clipPath
      ><clipPath clipPathUnits="userSpaceOnUse" id="clipPath9"
      ><path d="M0 0 L100 0 L100 15 L0 15 L0 0 Z"
      /></clipPath
      ><clipPath clipPathUnits="userSpaceOnUse" id="clipPath10"
      ><path d="M-7 -7 L49 -7 L49 27 L-7 27 L-7 -7 Z"
      /></clipPath
      ><clipPath clipPathUnits="userSpaceOnUse" id="clipPath11"
      ><path d="M0 0 L38 0 L38 16 L0 16 L0 0 Z"
      /></clipPath
      ><clipPath clipPathUnits="userSpaceOnUse" id="clipPath12"
      ><path d="M0 0 L172 0 L172 104 L0 104 L0 0 Z"
      /></clipPath
      ><clipPath clipPathUnits="userSpaceOnUse" id="clipPath13"
      ><path d="M0 0 L182 0 L182 204 L0 204 L0 0 Z"
      /></clipPath
    ></defs
    ><g fill="white" text-rendering="geometricPrecision" fill-opacity="1" stroke-opacity="1" stroke="white"
    ><rect x="0" width="596" height="318" y="0" stroke="none"
    /></g
    ><g font-size="11" transform="translate(2,2)" fill-opacity="1" fill="rgb(224,224,224)" text-rendering="geometricPrecision" font-family="sans-serif" stroke="rgb(224,224,224)" font-weight="bold" stroke-opacity="1"
    ><rect x="0" width="410" height="312" y="0" clip-path="url(#clipPath1)" stroke="none"
    /></g
    ><g font-size="11" stroke-linecap="butt" transform="translate(2,2)" fill-opacity="1" fill="black" text-rendering="geometricPrecision" font-family="sans-serif" stroke-linejoin="round" stroke="black" font-weight="bold" stroke-opacity="1" stroke-miterlimit="0"
    ><rect fill="none" x="0" width="410" height="312" y="0" clip-path="url(#clipPath1)"
      /><line y2="15" fill="none" x1="0" clip-path="url(#clipPath1)" x2="410" y1="15"
    /></g
    ><g font-size="11" transform="matrix(1,0,0,1,2,17)" fill-opacity="1" fill="black" text-rendering="geometricPrecision" font-family="sans-serif" stroke="black" stroke-opacity="1"
    ><text x="2" xml:space="preserve" y="14" clip-path="url(#clipPath2)" stroke="none"
      > scenario : Object</text
    ></g
    ><g font-size="11" transform="matrix(1,0,0,1,2,17)" fill-opacity="1" fill="black" text-rendering="geometricPrecision" font-family="sans-serif" stroke="black" stroke-opacity="1"
    ><text x="2" xml:space="preserve" y="29" clip-path="url(#clipPath2)" stroke="none"
      > debug : Boolean</text
      ><text x="2" xml:space="preserve" y="44" clip-path="url(#clipPath2)" stroke="none"
      > agentFactories : Array of Object</text
      ><text x="2" xml:space="preserve" y="59" clip-path="url(#clipPath2)" stroke="none"
      > autoGenIdCurrentPos : Number</text
      ><text x="2" xml:space="preserve" y="74" clip-path="url(#clipPath2)" stroke="none"
      > agentSimulators : Array of AgentSimulator</text
      ><text x="2" xml:space="preserve" y="89" clip-path="url(#clipPath2)" stroke="none"
      > coreSimulator : CoreSimulator</text
      ><line stroke-linecap="butt" clip-path="url(#clipPath2)" fill="none" x1="0" x2="410" y1="94" stroke-linejoin="bevel" y2="94" stroke-miterlimit="0"
      /><text x="2" xml:space="preserve" y="108" clip-path="url(#clipPath2)" stroke="none"
      > initialize()</text
      ><text x="2" xml:space="preserve" y="123" clip-path="url(#clipPath2)" stroke="none"
      > createInitialAgents()</text
      ><text x="2" xml:space="preserve" y="138" clip-path="url(#clipPath2)" stroke="none"
      > onSimulationPreStepEnd(currentSimulationStep : Number)</text
      ><text x="2" xml:space="preserve" y="153" clip-path="url(#clipPath2)" stroke="none"
      > on(currentSimulationStep : Number, eventTypeName : String, event : Object)</text
      ><text x="2" xml:space="preserve" y="168" clip-path="url(#clipPath2)" stroke="none"
      > onResultingEvents(stepNumber : Number, resultingEvents : Array)</text
      ><text x="2" xml:space="preserve" y="183" clip-path="url(#clipPath2)" stroke="none"
      > onResultingStateChanges(stepNumber : Number, resultingStateChanges : Array)</text
      ><text x="2" xml:space="preserve" y="198" clip-path="url(#clipPath2)" stroke="none"
      > createAgentTypes(agentTypesData : Array)</text
      ><text x="2" xml:space="preserve" y="213" clip-path="url(#clipPath2)" stroke="none"
      > processAgentProperties(properties : Object) : Object</text
      ><text x="2" xml:space="preserve" y="228" clip-path="url(#clipPath2)" stroke="none"
      > createAgentSimulator(agentData : Object)</text
      ><text x="2" xml:space="preserve" y="243" clip-path="url(#clipPath2)" stroke="none"
      > runSimulation() : Object</text
      ><text x="2" xml:space="preserve" y="258" clip-path="url(#clipPath2)" stroke="none"
      > runSimulationWithStatisticsOutput() : Object</text
      ><text x="2" xml:space="preserve" y="273" clip-path="url(#clipPath2)" stroke="none"
      > runSimulationWithFullOutput() : Object</text
      ><text x="2" xml:space="preserve" y="288" clip-path="url(#clipPath2)" stroke="none"
      >+initializeDistributedSimulation()</text
    ></g
    ><g font-size="11" transform="translate(2,2)" fill-opacity="1" fill="black" text-rendering="geometricPrecision" font-family="sans-serif" stroke="black" font-weight="bold" stroke-opacity="1"
    ><text x="179" xml:space="preserve" y="12" clip-path="url(#clipPath3)" stroke="none"
      >Simulator</text
    ></g
    ><g font-size="11" transform="translate(482,2)" fill-opacity="1" fill="rgb(224,224,224)" text-rendering="geometricPrecision" font-family="sans-serif" stroke="rgb(224,224,224)" font-weight="bold" stroke-opacity="1"
    ><rect x="0" width="110" height="60" y="0" clip-path="url(#clipPath4)" stroke="none"
    /></g
    ><g font-size="11" stroke-linecap="butt" transform="translate(482,2)" fill-opacity="1" fill="black" text-rendering="geometricPrecision" font-family="sans-serif" stroke-linejoin="round" stroke="black" font-weight="bold" stroke-opacity="1" stroke-miterlimit="0"
    ><rect fill="none" x="0" width="110" height="60" y="0" clip-path="url(#clipPath4)"
      /><line y2="15" fill="none" x1="0" clip-path="url(#clipPath4)" x2="110" y1="15"
    /></g
    ><g font-size="11" transform="translate(482,2)" fill-opacity="1" fill="black" text-rendering="geometricPrecision" font-family="sans-serif" stroke="black" font-weight="bold" stroke-opacity="1"
    ><text x="17" xml:space="preserve" y="12" clip-path="url(#clipPath6)" stroke="none"
      >CoreSimulator</text
    ></g
    ><g font-size="11" transform="translate(492,112)" fill-opacity="1" fill="rgb(224,224,224)" text-rendering="geometricPrecision" font-family="sans-serif" stroke="rgb(224,224,224)" font-weight="bold" stroke-opacity="1"
    ><rect x="0" width="100" height="40" y="0" clip-path="url(#clipPath7)" stroke="none"
    /></g
    ><g font-size="11" stroke-linecap="butt" transform="translate(492,112)" fill-opacity="1" fill="black" text-rendering="geometricPrecision" font-family="sans-serif" stroke-linejoin="round" stroke="black" font-weight="bold" stroke-opacity="1" stroke-miterlimit="0"
    ><rect fill="none" x="0" width="100" height="40" y="0" clip-path="url(#clipPath7)"
      /><line y2="15" fill="none" x1="0" clip-path="url(#clipPath7)" x2="100" y1="15"
    /></g
    ><g font-size="11" transform="translate(492,112)" fill-opacity="1" fill="black" text-rendering="geometricPrecision" font-family="sans-serif" stroke="black" font-weight="bold" stroke-opacity="1"
    ><text x="9" xml:space="preserve" y="12" clip-path="url(#clipPath9)" stroke="none"
      >AgentSimulator</text
    ></g
    ><g font-size="11" transform="translate(452,122)" fill-opacity="1" fill="black" text-rendering="geometricPrecision" font-family="sans-serif" stroke="black" stroke-opacity="1"
    ><text x="10" xml:space="preserve" y="12" clip-path="url(#clipPath11)" stroke="none"
      >0..*</text
    ></g
    ><g font-size="11" stroke-linecap="butt" transform="translate(363,-28)" fill-opacity="1" fill="black" text-rendering="geometricPrecision" font-family="sans-serif" stroke-linejoin="round" stroke="black" stroke-opacity="1"
    ><line y2="50" fill="none" x1="74" clip-path="url(#clipPath12)" x2="118" y1="50"
      /><polygon points=" 50 50 62 56 74 50 62 44" clip-path="url(#clipPath12)" stroke="none"
      /><polygon fill="none" points=" 50 50 62 56 74 50 62 44" clip-path="url(#clipPath12)"
    /></g
    ><g font-size="11" stroke-linecap="butt" transform="translate(363,-28)" fill-opacity="1" fill="black" text-rendering="geometricPrecision" font-family="sans-serif" stroke-linejoin="round" stroke="black" stroke-opacity="1"
    ><line y2="50" fill="none" x1="74" clip-path="url(#clipPath13)" x2="99" y1="50"
      /><line y2="150" fill="none" x1="99" clip-path="url(#clipPath13)" x2="99" y1="50"
      /><line y2="150" fill="none" x1="99" clip-path="url(#clipPath13)" x2="128" y1="150"
      /><polygon points=" 50 50 62 56 74 50 62 44" clip-path="url(#clipPath13)" stroke="none"
      /><polygon fill="none" points=" 50 50 62 56 74 50 62 44" clip-path="url(#clipPath13)"
    /></g
    ></g
></svg
>
