<?xml version="1.0" encoding="UTF-8"?>
<!DOCTYPE svg PUBLIC '-//W3C//DTD SVG 1.0//EN'
          'http://www.w3.org/TR/2001/REC-SVG-20010904/DTD/svg10.dtd'>
<svg fill-opacity="0" xmlns:xlink="http://www.w3.org/1999/xlink" color-rendering="auto" color-interpolation="auto" stroke="rgb(0,0,0)" text-rendering="auto" stroke-linecap="square" width="472" stroke-miterlimit="10" stroke-opacity="0" shape-rendering="auto" fill="rgb(0,0,0)" stroke-dasharray="none" font-weight="normal" stroke-width="1" height="213" xmlns="http://www.w3.org/2000/svg" font-family="&apos;Dialog&apos;" font-style="normal" stroke-linejoin="miter" font-size="12" stroke-dashoffset="0" image-rendering="auto"
><!--Generated by the Batik Graphics2D SVG Generator--><defs id="genericDefs"
  /><g
  ><defs id="defs1"
    ><clipPath clipPathUnits="userSpaceOnUse" id="clipPath1"
      ><path d="M-7 -7 L477 -7 L477 218 L-7 218 L-7 -7 Z"
      /></clipPath
      ><clipPath clipPathUnits="userSpaceOnUse" id="clipPath2"
      ><path d="M0 0 L0 192 L466 192 L466 0 Z"
      /></clipPath
      ><clipPath clipPathUnits="userSpaceOnUse" id="clipPath3"
      ><path d="M0 0 L466 0 L466 15 L0 15 L0 0 Z"
      /></clipPath
    ></defs
    ><g fill="white" text-rendering="geometricPrecision" fill-opacity="1" stroke-opacity="1" stroke="white"
    ><rect x="0" width="472" height="213" y="0" stroke="none"
    /></g
    ><g font-size="11" transform="translate(2,2)" fill-opacity="1" fill="rgb(224,224,224)" text-rendering="geometricPrecision" font-family="sans-serif" stroke="rgb(224,224,224)" font-weight="bold" stroke-opacity="1"
    ><rect x="0" width="466" height="207" y="0" clip-path="url(#clipPath1)" stroke="none"
    /></g
    ><g font-size="11" stroke-linecap="butt" transform="translate(2,2)" fill-opacity="1" fill="black" text-rendering="geometricPrecision" font-family="sans-serif" stroke-linejoin="round" stroke="black" font-weight="bold" stroke-opacity="1" stroke-miterlimit="0"
    ><rect fill="none" x="0" width="466" height="207" y="0" clip-path="url(#clipPath1)"
      /><line y2="15" fill="none" x1="0" clip-path="url(#clipPath1)" x2="466" y1="15"
    /></g
    ><g font-size="11" transform="matrix(1,0,0,1,2,17)" fill-opacity="1" fill="black" text-rendering="geometricPrecision" font-family="sans-serif" stroke="black" stroke-opacity="1"
    ><text x="2" xml:space="preserve" y="14" clip-path="url(#clipPath2)" stroke="none"
      > statisticVars : Object</text
    ></g
    ><g font-size="11" transform="matrix(1,0,0,1,2,17)" fill-opacity="1" fill="black" text-rendering="geometricPrecision" font-family="sans-serif" stroke="black" stroke-opacity="1"
    ><text x="2" xml:space="preserve" y="29" clip-path="url(#clipPath2)" stroke="none"
      > statistics : Object</text
      ><line stroke-linecap="butt" clip-path="url(#clipPath2)" fill="none" x1="0" x2="466" y1="34" stroke-linejoin="bevel" y2="34" stroke-miterlimit="0"
      /><text x="2" xml:space="preserve" y="48" clip-path="url(#clipPath2)" stroke="none"
      > initialize()</text
      ><text x="2" xml:space="preserve" y="63" clip-path="url(#clipPath2)" stroke="none"
      > reset()</text
      ><text x="2" xml:space="preserve" y="78" clip-path="url(#clipPath2)" stroke="none"
      > computeStatisticVariables(stepNumber : Number)</text
      ><text x="2" xml:space="preserve" y="93" clip-path="url(#clipPath2)" stroke="none"
      > processStatisticVariable(statisticVar : Object, stepNumber : Number)</text
      ><text x="2" xml:space="preserve" y="108" clip-path="url(#clipPath2)" stroke="none"
      > computeOnlyAtEndStatisticVariables(stepNumber : Number)</text
      ><text x="2" xml:space="preserve" y="123" clip-path="url(#clipPath2)" stroke="none"
      > computeAggregation(statisticVar : Object, newValue : Number | Array, stepNumber : Number)</text
      ><text x="2" xml:space="preserve" y="138" clip-path="url(#clipPath2)" stroke="none"
      > max(oldValue : Number, newValue : Number | Array, stepNumber : Number)</text
      ><text x="2" xml:space="preserve" y="153" clip-path="url(#clipPath2)" stroke="none"
      > min(oldValue : Number, newValue : Number | Array, stepNumber : Number)</text
      ><text x="2" xml:space="preserve" y="168" clip-path="url(#clipPath2)" stroke="none"
      > avg(oldValue : Number, newValue : Number | Array, stepNumber : Number)</text
      ><text x="2" xml:space="preserve" y="183" clip-path="url(#clipPath2)" stroke="none"
      > sum(oldValue : Number, newValue : Number | Array, stepNumber : Number)</text
    ></g
    ><g font-size="11" transform="translate(2,2)" fill-opacity="1" fill="black" text-rendering="geometricPrecision" font-family="sans-serif" stroke="black" font-weight="bold" stroke-opacity="1"
    ><text x="199" xml:space="preserve" y="12" clip-path="url(#clipPath3)" stroke="none"
      >StatisticsCtrl</text
    ></g
    ></g
></svg
>
