<?xml version="1.0" encoding="UTF-8" standalone="no"?>
<!DOCTYPE svg PUBLIC "-//W3C//DTD SVG 1.0//EN" "http://www.w3.org/TR/2001/REC-SVG-20010904/DTD/svg10.dtd">
<!-- Generated by Microsoft Visio 11.0, SVG Export, v1.0 IDM.svg Page-1 -->
<svg xmlns="http://www.w3.org/2000/svg" xmlns:xlink="http://www.w3.org/1999/xlink" xmlns:ev="http://www.w3.org/2001/xml-events"
		xmlns:v="http://schemas.microsoft.com/visio/2003/SVGExtensions/" width="3.60203in" height="2.1203in"
		viewBox="0 0 259.346 152.661" xml:space="preserve" color-interpolation-filters="sRGB" class="st8">
	<v:documentProperties v:langID="1033" v:metric="true" v:viewMarkup="false"/>

	<style type="text/css">
	<![CDATA[
		.st1 {fill:#000000;font-family:Calibri;font-size:0.666664em}
		.st2 {stroke:#000000;stroke-linecap:round;stroke-linejoin:round;stroke-width:0.48}
		.st3 {fill:#ffffff;stroke:#000000;stroke-linecap:round;stroke-linejoin:round;stroke-width:0.72}
		.st4 {font-size:1em;font-weight:bold}
		.st5 {font-size:1em;text-decoration:underline}
		.st6 {fill:#fdebdd;stroke:#000000;stroke-linecap:round;stroke-linejoin:round;stroke-width:0.72}
		.st7 {fill:#000000;stroke:#000000;stroke-linecap:round;stroke-linejoin:round;stroke-width:0.75}
		.st8 {fill:none;fill-rule:evenodd;font-size:12px;overflow:visible;stroke-linecap:square;stroke-miterlimit:3}
	]]>
	</style>

	<g v:mID="0" v:index="1" v:groupContext="foregroundPage">
		<title>Page-1</title>
		<v:pageProperties v:drawingScale="0.0393701" v:pageScale="0.0393701" v:drawingUnits="24" v:shadowOffsetX="8.50394"
				v:shadowOffsetY="-8.50394"/>
		<g id="group29-1" transform="translate(164.253,-114.616)" v:mID="29" v:groupContext="group">
			<v:userDefs>
				<v:ud v:nameU="UMLShapeType" v:val="VT0(23):26"/>
				<v:ud v:nameU="UMLObjectGUID" v:val="VT4({62C106FE-462D-4E1F-8A74-8F45720E4876})"/>
				<v:ud v:nameU="UMLError" v:val="VT0(0):26"/>
				<v:ud v:nameU="BeginAngle" v:val="VT0(-1.5710561082368):32"/>
				<v:ud v:nameU="EndAngle" v:val="VT0(3.1413328721479):32"/>
				<v:ud v:nameU="UMLPresOption1" v:val="VT0(512):26"/>
				<v:ud v:nameU="UMLSuppressOption" v:val="VT0(1):26"/>
				<v:ud v:nameU="Navigability" v:val="VT0(0):26"/>
				<v:ud v:nameU="UMLVersion" v:val="VT0(2):26"/>
				<v:ud v:nameU="DX1" v:val="VT0(-1.2175911380918E-005):1"/>
				<v:ud v:nameU="DY1" v:val="VT0(-0.046869826493338):24"/>
				<v:ud v:nameU="DX3" v:val="VT0(-0.046869826493382):1"/>
				<v:ud v:nameU="DY3" v:val="VT0(1.2175911383583E-005):24"/>
				<v:ud v:nameU="visDescription" v:val="VT4(Represents an association between two classifiers.)"/>
				<v:ud v:nameU="visVersion" v:val="VT0(14):26"/>
			</v:userDefs>
			<title>Binary Association.81</title>
			<g id="shape30-2" v:mID="30" v:groupContext="shape" transform="translate(5.08897,26.0671)">
				<title>end1_name</title>
			</g>
			<g id="shape31-3" v:mID="31" v:groupContext="shape" transform="translate(-18.9604,26.068)">
				<title>end1_mp</title>
				<desc>1</desc>
				<v:textBlock v:margins="rect(4,4,4,4)" v:tabSpace="42.5197"/>
				<v:textRect cx="6.9335" cy="143.86" width="13.87" height="17.6036"/>
			</g>
			<g id="shape32-4" v:mID="32" v:groupContext="shape" transform="translate(-13.2725,113.374)">
				<title>end2_name</title>
			</g>
			<g id="shape33-5" v:mID="33" v:groupContext="shape" transform="translate(-13.2699,85.5915)">
				<title>end2_mp</title>
				<desc>*</desc>
				<v:textBlock v:margins="rect(4,4,4,4)" v:tabSpace="42.5197"/>
				<v:textRect cx="6.89835" cy="143.86" width="13.8" height="17.6036"/>
				<text x="4.91" y="146.26" class="st1" v:langID="1031"><v:paragraph v:horizAlign="1"/><v:tabList/>*</text>			</g>
			<g id="shape29-7" v:mID="29" v:groupContext="groupContent">
				<path d="M0 152.66 L0 243.34 L-21.74 243.34" class="st2"/>
			</g>
		</g>
		<g id="group2-10" transform="translate(105.16,-114.616)" v:mID="2" v:groupContext="group">
			<v:userDefs>
				<v:ud v:nameU="UMLSuppressOption" v:val="VT0(24):26"/>
				<v:ud v:nameU="UMLTemplate" v:val="VT0(0):26"/>
				<v:ud v:nameU="UMLVersion" v:val="VT0(2):26"/>
				<v:ud v:nameU="UMLShapeType" v:val="VT0(20):26"/>
				<v:ud v:nameU="UMLObjectGUID" v:val="VT4({223D4DB5-0641-4F3E-BD85-6D66289C88DE})"/>
				<v:ud v:nameU="UMLError" v:val="VT0(0):26"/>
				<v:ud v:nameU="UMLAutoLockTextEdit" v:val="VT0(1):26"/>
				<v:ud v:nameU="UMLPresOption1" v:val="VT0(51):26"/>
				<v:ud v:nameU="UMLPresOption2" v:val="VT0(0):26"/>
				<v:ud v:nameU="DefaultWidth" v:val="VT0(1.641471425018):1"/>
				<v:ud v:nameU="EnsureWidthOK" v:val="VT0(1.641471425018):1"/>
				<v:ud v:nameU="visDescription"
						v:val="VT4(Represents a descriptor for a set of objects with similar structure, behavior and relationships.)"/>
				<v:ud v:nameU="visVersion" v:val="VT0(14):26"/>
			</v:userDefs>
			<title>Klasse</title>
			<g id="shape3-11" v:mID="3" v:groupContext="shape" transform="translate(59.093,288.414) rotate(180)">
				<title>Sheet.3</title>
			</g>
			<g id="shape4-12" v:mID="4" v:groupContext="shape" transform="translate(59.093,288.414) rotate(180)">
				<title>Sheet.4</title>
			</g>
			<g id="shape5-13" v:mID="5" v:groupContext="shape" transform="translate(59.093,288.414) rotate(180)">
				<title>Sheet.5</title>
			</g>
			<g id="shape6-14" v:mID="6" v:groupContext="shape" transform="translate(96.1188,283.856) rotate(165.964)">
				<title>Sheet.6</title>
			</g>
			<g id="shape7-15" v:mID="7" v:groupContext="shape">
				<title>Operations</title>
			</g>
			<g id="shape8-17" v:mID="8" v:groupContext="shape">
				<title>Attributes</title>
				<desc>queueLength : NonNegativeInteger</desc>
				<v:textBlock v:margins="rect(1,1,1,1)" v:tabSpace="42.5197" v:verticalAlign="0"/>
				<v:textRect cx="59.093" cy="146.354" width="118.19" height="12.6142"/>
				<rect x="0" y="140.047" width="118.186" height="12.6142" class="st3"/>
				<text x="1" y="148.25" class="st1" v:langID="1031"><v:paragraph/><v:tabList/>queueLength : NonNegativeInteger</text>			</g>
			<g id="shape9-20" v:mID="9" v:groupContext="shape" transform="translate(0,-12.6142)">
				<title>Name</title>
				<desc>«object type» ServiceDesk</desc>
				<v:textBlock v:margins="rect(1,1,1,1)" v:tabSpace="42.5197"/>
				<v:textRect cx="59.093" cy="142.06" width="118.19" height="21.2035"/>
				<path d="M0 152.66 L118.19 152.66 L118.19 131.46 L0 131.46 L0 152.66 Z" class="st3"/>
				<text x="36.66" y="139.66" class="st1" v:langID="1031"><v:paragraph v:horizAlign="1"/><v:tabList/>«object type»<v:newlineChar/><tspan
							x="39.15" dy="1.2em" class="st4">ServiceDesk</tspan></text>			</g>
			<g id="shape10-24" v:mID="10" v:groupContext="shape" transform="translate(82.1859,-29.5905)">
				<title>Parameters</title>
			</g>
		</g>
		<g id="group11-26" transform="translate(3.74831,-54.9004)" v:mID="11" v:groupContext="group">
			<v:userDefs>
				<v:ud v:nameU="UMLSuppressOption" v:val="VT0(16):26"/>
				<v:ud v:nameU="UMLTemplate" v:val="VT0(0):26"/>
				<v:ud v:nameU="UMLVersion" v:val="VT0(2):26"/>
				<v:ud v:nameU="UMLShapeType" v:val="VT0(20):26"/>
				<v:ud v:nameU="UMLObjectGUID" v:val="VT4({83DDF57E-CC21-4FD4-937B-58D7ECD70ABE})"/>
				<v:ud v:nameU="UMLError" v:val="VT0(0):26"/>
				<v:ud v:nameU="UMLAutoLockTextEdit" v:val="VT0(1):26"/>
				<v:ud v:nameU="UMLPresOption1" v:val="VT0(8243):26"/>
				<v:ud v:nameU="UMLPresOption2" v:val="VT0(0):26"/>
				<v:ud v:nameU="DefaultWidth" v:val="VT0(1.7483592424008):1"/>
				<v:ud v:nameU="EnsureWidthOK" v:val="VT0(1.7483592424008):1"/>
				<v:ud v:nameU="visDescription"
						v:val="VT4(Represents a descriptor for a set of objects with similar structure, behavior and relationships.)"/>
				<v:ud v:nameU="visVersion" v:val="VT0(14):26"/>
			</v:userDefs>
			<title>Class.25</title>
			<g id="shape12-27" v:mID="12" v:groupContext="shape" transform="translate(62.9409,282.107) rotate(180)">
				<title>Sheet.12</title>
			</g>
			<g id="shape13-28" v:mID="13" v:groupContext="shape" transform="translate(62.9409,282.107) rotate(180)">
				<title>Sheet.13</title>
			</g>
			<g id="shape14-29" v:mID="14" v:groupContext="shape" transform="translate(62.9409,282.107) rotate(180)">
				<title>Sheet.14</title>
			</g>
			<g id="shape15-30" v:mID="15" v:groupContext="shape" transform="translate(111.217,274.273) rotate(161.565)">
				<title>Sheet.15</title>
			</g>
			<g id="shape16-31" v:mID="16" v:groupContext="shape">
				<title>Operations</title>
				<desc>«rv» recurrence() : Decimal {Exp(0.5)}</desc>
				<v:textBlock v:margins="rect(1,1,1,1)" v:tabSpace="42.5197" v:verticalAlign="0"/>
				<v:textRect cx="62.9409" cy="146.354" width="125.89" height="12.6142"/>
				<rect x="0" y="140.047" width="125.882" height="12.6142" class="st3"/>
				<text x="1" y="148.25" class="st1" v:langID="1031"><v:paragraph/><v:tabList/><tspan class="st5">«rv» recurrence</tspan><tspan
							class="st5">() : </tspan><tspan class="st5">Decimal </tspan><tspan class="st5">{</tspan><tspan
							class="st5">Exp</tspan><tspan class="st5">(</tspan><tspan class="st5">0</tspan><tspan class="st5">.</tspan><tspan
							class="st5">5</tspan><tspan class="st5">)</tspan><tspan class="st5">}</tspan></text>			</g>
			<g id="shape17-45" v:mID="17" v:groupContext="shape" transform="translate(0,-12.6142)">
				<title>Attributes</title>
				<rect x="0" y="140.047" width="125.882" height="12.6142" class="st3"/>
			</g>
			<g id="shape18-47" v:mID="18" v:groupContext="shape" transform="translate(0,-25.2283)">
				<title>Name</title>
				<desc>«exogenous event type» PartArrival</desc>
				<v:textBlock v:margins="rect(1,1,1,1)" v:tabSpace="42.5197"/>
				<v:textRect cx="62.9409" cy="142.06" width="125.89" height="21.2035"/>
				<path d="M0 152.66 L125.88 152.66 L125.88 131.46 L0 131.46 L0 152.66 Z" class="st3"/>
				<text x="22.98" y="139.66" class="st1" v:langID="1031"><v:paragraph v:horizAlign="1"/><v:tabList/>«exogenous event type»<v:newlineChar/><tspan
							x="35.76" dy="1.2em" class="st4">PartArrival</tspan></text>			</g>
			<g id="shape19-51" v:mID="19" v:groupContext="shape" transform="translate(89.8819,-40.6279)">
				<title>Parameters</title>
			</g>
		</g>
		<g id="group20-53" transform="translate(0.72,-0.72)" v:mID="20" v:groupContext="group">
			<v:userDefs>
				<v:ud v:nameU="UMLSuppressOption" v:val="VT0(16):26"/>
				<v:ud v:nameU="UMLTemplate" v:val="VT0(0):26"/>
				<v:ud v:nameU="UMLVersion" v:val="VT0(2):26"/>
				<v:ud v:nameU="UMLShapeType" v:val="VT0(20):26"/>
				<v:ud v:nameU="UMLObjectGUID" v:val="VT4({D0CF127F-174D-4AD0-B823-84C85E3BAB63})"/>
				<v:ud v:nameU="UMLError" v:val="VT0(0):26"/>
				<v:ud v:nameU="UMLAutoLockTextEdit" v:val="VT0(1):26"/>
				<v:ud v:nameU="UMLPresOption1" v:val="VT0(51):26"/>
				<v:ud v:nameU="UMLPresOption2" v:val="VT0(0):26"/>
				<v:ud v:nameU="DefaultWidth" v:val="VT0(1.9693866166684):1"/>
				<v:ud v:nameU="EnsureWidthOK" v:val="VT0(1.9693866166684):1"/>
				<v:ud v:nameU="visDescription"
						v:val="VT4(Represents a descriptor for a set of objects with similar structure, behavior and relationships.)"/>
				<v:ud v:nameU="visVersion" v:val="VT0(14):26"/>
			</v:userDefs>
			<title>Class.100</title>
			<g id="shape21-54" v:mID="21" v:groupContext="shape" transform="translate(70.8979,282.107) rotate(180)">
				<title>Sheet.21</title>
			</g>
			<g id="shape22-55" v:mID="22" v:groupContext="shape" transform="translate(70.8979,282.107) rotate(180)">
				<title>Sheet.22</title>
			</g>
			<g id="shape23-56" v:mID="23" v:groupContext="shape" transform="translate(70.8979,282.107) rotate(180)">
				<title>Sheet.23</title>
			</g>
			<g id="shape24-57" v:mID="24" v:groupContext="shape" transform="translate(107.924,277.549) rotate(165.964)">
				<title>Sheet.24</title>
			</g>
			<g id="shape25-58" v:mID="25" v:groupContext="shape">
				<title>Operations</title>
				<desc>«rv» serviceDuration() : Decimal {Exp(0.5)}</desc>
				<v:textBlock v:margins="rect(1,1,1,1)" v:tabSpace="42.5197" v:verticalAlign="0"/>
				<v:textRect cx="70.8979" cy="146.354" width="141.8" height="12.6142"/>
				<rect x="0" y="140.047" width="141.796" height="12.6142" class="st6"/>
				<text x="1" y="148.25" class="st1" v:langID="1031"><v:paragraph/><v:tabList/><tspan class="st5">«rv» serviceDuration</tspan><tspan
							class="st5">() : </tspan><tspan class="st5">Decimal </tspan><tspan class="st5">{</tspan><tspan
							class="st5">Exp</tspan><tspan class="st5">(</tspan><tspan class="st5">0</tspan><tspan class="st5">.</tspan><tspan
							class="st5">5</tspan><tspan class="st5">)</tspan><tspan class="st5">}</tspan></text>			</g>
			<g id="shape26-72" v:mID="26" v:groupContext="shape" transform="translate(0,-12.6142)">
				<title>Attributes</title>
				<rect x="0" y="140.047" width="141.796" height="12.6142" class="st6"/>
			</g>
			<g id="shape27-74" v:mID="27" v:groupContext="shape" transform="translate(0,-25.2283)">
				<title>Name</title>
				<desc>«activity type» ServicePerformance</desc>
				<v:textBlock v:margins="rect(1,1,1,1)" v:tabSpace="42.5197"/>
				<v:textRect cx="70.8979" cy="142.06" width="141.8" height="21.2035"/>
				<path d="M0 152.66 L141.8 152.66 L141.8 131.46 L0 131.46 L0 152.66 Z" class="st6"/>
				<text x="46.91" y="139.66" class="st1" v:langID="1031"><v:paragraph v:horizAlign="1"/><v:tabList/>«activity type»<v:newlineChar/><tspan
							x="37.54" dy="1.2em" class="st4">ServicePerformance</tspan></text>			</g>
			<g id="shape28-78" v:mID="28" v:groupContext="shape" transform="translate(105.796,-40.6279)">
				<title>Parameters</title>
			</g>
		</g>
		<g id="group34-80" transform="translate(164.253,-114.616)" v:mID="34" v:groupContext="group">
			<v:userDefs>
				<v:ud v:nameU="UMLShapeType" v:val="VT0(23):26"/>
				<v:ud v:nameU="UMLObjectGUID" v:val="VT4({6D8D503F-F278-4656-9A0F-166B2C2EBBE2})"/>
				<v:ud v:nameU="UMLError" v:val="VT0(0):26"/>
				<v:ud v:nameU="BeginAngle" v:val="VT0(-1.5712069404921):32"/>
				<v:ud v:nameU="EndAngle" v:val="VT0(3.141182039893):32"/>
				<v:ud v:nameU="UMLPresOption1" v:val="VT0(512):26"/>
				<v:ud v:nameU="UMLSuppressOption" v:val="VT0(0):26"/>
				<v:ud v:nameU="Navigability" v:val="VT0(0):26"/>
				<v:ud v:nameU="UMLVersion" v:val="VT0(2):26"/>
				<v:ud v:nameU="DX1" v:val="VT0(-1.2175911382251E-005):1"/>
				<v:ud v:nameU="DY1" v:val="VT0(-0.029652957956172):24"/>
				<v:ud v:nameU="DX3" v:val="VT0(-0.029652957956164):1"/>
				<v:ud v:nameU="DY3" v:val="VT0(1.2175911372481E-005):24"/>
				<v:ud v:nameU="visDescription" v:val="VT4(Represents an association between two classifiers.)"/>
				<v:ud v:nameU="visVersion" v:val="VT0(14):26"/>
			</v:userDefs>
			<title>Binary Association.129</title>
			<g id="shape35-81" v:mID="35" v:groupContext="shape" transform="translate(5.0882,24.8283)">
				<title>end1_name</title>
			</g>
			<g id="shape36-82" v:mID="36" v:groupContext="shape" transform="translate(-18.9611,24.8277)">
				<title>end1_mp</title>
				<desc>1</desc>
				<v:textBlock v:margins="rect(4,4,4,4)" v:tabSpace="42.5197"/>
				<v:textRect cx="6.9335" cy="143.86" width="13.87" height="17.6036"/>
				<text x="4.91" y="146.26" class="st1" v:langID="1031"><v:paragraph v:horizAlign="1"/><v:tabList/>1</text>			</g>
			<g id="shape37-84" v:mID="37" v:groupContext="shape" transform="translate(-27.3986,59.1942)">
				<title>end2_name</title>
			</g>
			<g id="shape38-85" v:mID="38" v:groupContext="shape" transform="translate(-27.3944,31.4119)">
				<title>end2_mp</title>
				<desc>*</desc>
				<v:textBlock v:margins="rect(4,4,4,4)" v:tabSpace="42.5197"/>
				<v:textRect cx="6.89835" cy="143.86" width="13.8" height="17.6036"/>
				<text x="4.91" y="146.26" class="st1" v:langID="1031"><v:paragraph v:horizAlign="1"/><v:tabList/>*</text>			</g>
			<g id="shape34-87" v:mID="34" v:groupContext="groupContent">
				<path d="M0 152.66 L0 189.16 L-34.62 189.16" class="st2"/>
			</g>
		</g>
		<g id="shape40-90" v:mID="40" v:groupContext="shape" transform="translate(162.642,-112.065)">
			<title>Sheet.40</title>
			<ellipse cx="1.41732" cy="151.386" rx="1.41732" ry="1.27559" class="st7"/>
		</g>
	</g>
</svg>
