<?xml version="1.0" encoding="UTF-8" standalone="no"?>
<!DOCTYPE svg PUBLIC "-//W3C//DTD SVG 1.0//EN" "http://www.w3.org/TR/2001/REC-SVG-20010904/DTD/svg10.dtd">
<!-- Generated by Microsoft Visio 11.0, SVG Export, v1.0 Types.svg Page-1 -->
<svg xmlns="http://www.w3.org/2000/svg" xmlns:xlink="http://www.w3.org/1999/xlink" xmlns:ev="http://www.w3.org/2001/xml-events"
		xmlns:v="http://schemas.microsoft.com/visio/2003/SVGExtensions/" width="4.11236in" height="3.14874in"
		viewBox="0 0 296.09 226.71" xml:space="preserve" color-interpolation-filters="sRGB" class="st11">
	<v:documentProperties v:langID="1033" v:metric="true" v:viewMarkup="false"/>

	<style type="text/css">
	<![CDATA[
		.st1 {fill:#ffffff;stroke:#000000;stroke-linecap:round;stroke-linejoin:round;stroke-width:0.72}
		.st2 {fill:#000000;font-family:Arial;font-size:0.666664em;font-style:italic;font-weight:bold}
		.st3 {fill:#000000;font-family:Calibri;font-size:0.666664em}
		.st4 {font-size:1em}
		.st5 {stroke:#000000;stroke-linecap:round;stroke-linejoin:round;stroke-width:0.48}
		.st6 {fill:#ffffff;stroke:#000000;stroke-linecap:round;stroke-linejoin:round;stroke-width:0.75}
		.st7 {fill:#000000;font-family:Arial;font-size:0.666664em}
		.st8 {fill:#000000;font-family:Arial;font-size:0.666664em;font-weight:bold}
		.st9 {fill:#000000;font-family:Calibri;font-size:0.666664em;font-weight:bold}
		.st10 {fill:#000000;stroke:#000000;stroke-linecap:round;stroke-linejoin:round;stroke-width:0.75}
		.st11 {fill:none;fill-rule:evenodd;font-size:12px;overflow:visible;stroke-linecap:square;stroke-miterlimit:3}
	]]>
	</style>

	<g v:mID="0" v:index="1" v:groupContext="foregroundPage">
		<title>Page-1</title>
		<v:pageProperties v:drawingScale="0.0393701" v:pageScale="0.0393701" v:drawingUnits="24" v:shadowOffsetX="8.50394"
				v:shadowOffsetY="-8.50394"/>
		<g id="group2-1" transform="translate(102.767,-10.5086)" v:mID="2" v:groupContext="group">
			<v:userDefs>
				<v:ud v:nameU="UMLSuppressOption" v:val="VT0(28):26"/>
				<v:ud v:nameU="UMLTemplate" v:val="VT0(0):26"/>
				<v:ud v:nameU="UMLVersion" v:val="VT0(2):26"/>
				<v:ud v:nameU="UMLShapeType" v:val="VT0(20):26"/>
				<v:ud v:nameU="UMLObjectGUID" v:val="VT4({640E6535-1844-45D2-BE38-89E0CBA8BF4B})"/>
				<v:ud v:nameU="UMLError" v:val="VT0(0):26"/>
				<v:ud v:nameU="UMLAutoLockTextEdit" v:val="VT0(1):26"/>
				<v:ud v:nameU="UMLPresOption1" v:val="VT0(179):26"/>
				<v:ud v:nameU="UMLPresOption2" v:val="VT0(0):26"/>
				<v:ud v:nameU="DefaultWidth" v:val="VT0(0.74803149606299):24"/>
				<v:ud v:nameU="EnsureWidthOK" v:val="VT0(0):26"/>
				<v:ud v:nameU="visDescription"
						v:val="VT4(Represents a descriptor for a set of objects with similar structure, behavior and relationships.)"/>
				<v:ud v:nameU="visVersion" v:val="VT0(11):26"/>
			</v:userDefs>
			<title>Class.29</title>
			<g id="shape3-2" v:mID="3" v:groupContext="shape" transform="translate(26.9291,446.191) rotate(180)">
				<title>Sheet.3</title>
			</g>
			<g id="shape4-3" v:mID="4" v:groupContext="shape" transform="translate(26.9291,446.191) rotate(180)">
				<title>Sheet.4</title>
			</g>
			<g id="shape5-4" v:mID="5" v:groupContext="shape" transform="translate(26.9291,446.191) rotate(180)">
				<title>Sheet.5</title>
			</g>
			<g id="shape6-5" v:mID="6" v:groupContext="shape" transform="translate(64.2,443.106) rotate(170.538)">
				<title>Sheet.6</title>
			</g>
			<g id="shape7-6" v:mID="7" v:groupContext="shape">
				<title>Operations</title>
			</g>
			<g id="shape8-8" v:mID="8" v:groupContext="shape">
				<title>Attributes</title>
				<desc>occurrenceTime[0..1] : Integer startTime[0..1] : Integer dura...</desc>
				<v:textBlock v:margins="rect(1,1,1,1)" v:verticalAlign="0"/>
				<v:textRect cx="26.9291" cy="226.71" width="53.86" height="0"/>
			</g>
			<g id="shape9-10" v:mID="9" v:groupContext="shape">
				<title>Name</title>
				<desc>Event</desc>
				<v:textBlock v:margins="rect(1,1,1,1)" v:tabSpace="42.5197"/>
				<v:textRect cx="26.9291" cy="219.481" width="53.86" height="14.4567"/>
				<path d="M0 226.71 L53.86 226.71 L53.86 212.25 L0 212.25 L0 226.71 Z" class="st1"/>
				<text x="16.04" y="221.88" class="st2" v:langID="1031"><v:paragraph v:horizAlign="1"/><v:tabList/>Event</text>			</g>
			<g id="shape10-13" v:mID="10" v:groupContext="shape" transform="translate(17.8583,-12.6496)">
				<title>Parameters</title>
			</g>
		</g>
		<g id="group20-15" transform="translate(11.4755,-48.4336)" v:mID="20" v:groupContext="group">
			<v:userDefs>
				<v:ud v:nameU="UMLSuppressOption" v:val="VT0(24):26"/>
				<v:ud v:nameU="UMLTemplate" v:val="VT0(0):26"/>
				<v:ud v:nameU="UMLVersion" v:val="VT0(2):26"/>
				<v:ud v:nameU="UMLShapeType" v:val="VT0(20):26"/>
				<v:ud v:nameU="UMLObjectGUID" v:val="VT4({541E556F-F746-4F82-A3F9-A9F8B148B922})"/>
				<v:ud v:nameU="UMLError" v:val="VT0(0):26"/>
				<v:ud v:nameU="UMLAutoLockTextEdit" v:val="VT0(1):26"/>
				<v:ud v:nameU="UMLPresOption1" v:val="VT0(8371):26"/>
				<v:ud v:nameU="UMLPresOption2" v:val="VT0(0):26"/>
				<v:ud v:nameU="DefaultWidth" v:val="VT0(0.88861421676606):1"/>
				<v:ud v:nameU="EnsureWidthOK" v:val="VT0(0):26"/>
				<v:ud v:nameU="visDescription"
						v:val="VT4(Represents a descriptor for a set of objects with similar structure, behavior and relationships.)"/>
				<v:ud v:nameU="visVersion" v:val="VT0(11):26"/>
			</v:userDefs>
			<title>Class.19</title>
			<g id="shape21-16" v:mID="21" v:groupContext="shape" transform="translate(31.9901,435.589) rotate(180)">
				<title>Sheet.21</title>
			</g>
			<g id="shape22-17" v:mID="22" v:groupContext="shape" transform="translate(31.9901,435.589) rotate(180)">
				<title>Sheet.22</title>
			</g>
			<g id="shape23-18" v:mID="23" v:groupContext="shape" transform="translate(31.9901,435.589) rotate(180)">
				<title>Sheet.23</title>
			</g>
			<g id="shape24-19" v:mID="24" v:groupContext="shape" transform="translate(111.593,421.154) rotate(159.444)">
				<title>Sheet.24</title>
			</g>
			<g id="shape25-20" v:mID="25" v:groupContext="shape">
				<title>Operations</title>
			</g>
			<g id="shape26-22" v:mID="26" v:groupContext="shape">
				<title>Attributes</title>
				<desc>id[0..1] : Integer name[0..1] : String</desc>
				<v:textBlock v:margins="rect(1,1,1,1)" v:verticalAlign="0"/>
				<v:textRect cx="31.9901" cy="216.108" width="63.99" height="21.2035"/>
				<rect x="0" y="205.506" width="63.9802" height="21.2035" class="st1"/>
				<text x="1" y="213.71" class="st3" v:langID="1031"><v:paragraph/><v:tabList/>id[0..1] : Integer<v:newlineChar/><tspan
							x="1" dy="1.2em" class="st4">name</tspan>[0..1] : String</text>			</g>
			<g id="shape27-26" v:mID="27" v:groupContext="shape" transform="translate(0,-21.2035)">
				<title>Name</title>
				<desc>Entity</desc>
				<v:textBlock v:margins="rect(1,1,1,1)" v:tabSpace="42.5197"/>
				<v:textRect cx="31.9901" cy="219.481" width="63.99" height="14.4567"/>
				<path d="M0 226.71 L63.98 226.71 L63.98 212.25 L0 212.25 L0 226.71 Z" class="st1"/>
				<text x="20.88" y="221.88" class="st2" v:langID="1031"><v:paragraph v:horizAlign="1"/><v:tabList/>Entity</text>			</g>
			<g id="shape28-29" v:mID="28" v:groupContext="shape" transform="translate(27.9802,-31.2027)">
				<title>Parameters</title>
			</g>
		</g>
		<g id="group29-31" transform="translate(75.4558,-66.2637)" v:mID="29" v:groupContext="group">
			<v:userDefs>
				<v:ud v:nameU="UMLShapeType" v:val="VT0(22):26"/>
				<v:ud v:nameU="UMLObjectGUID" v:val="VT4({5BDD3ACB-CCB0-4419-8ACD-6BAA8B17A019})"/>
				<v:ud v:nameU="UMLError" v:val="VT0(0):26"/>
				<v:ud v:nameU="BeginAngle" v:val="VT0(0.0048651508836607):32"/>
				<v:ud v:nameU="DX1" v:val="VT0(0.054893798262267):24"/>
				<v:ud v:nameU="UMLPresOption1" v:val="VT0(2):26"/>
				<v:ud v:nameU="UMLVersion" v:val="VT0(2):26"/>
				<v:ud v:nameU="DY1" v:val="VT0(0.00026706555756029):24"/>
				<v:ud v:nameU="visDescription"
						v:val="VT4(Indicates a classification relationship between a more general and a more specific element.)"/>
				<v:ud v:nameU="visVersion" v:val="VT0(11):26"/>
			</v:userDefs>
			<title>Generalization.30</title>
			<g id="shape30-32" v:mID="30" v:groupContext="shape" transform="translate(7.23494,24.8)">
				<title>Discriminator</title>
			</g>
			<g id="shape29-33" v:mID="29" v:groupContext="groupContent">
				<path d="M0 226.71 L17.96 226.71 L17.96 275.24 L27.31 275.24" class="st5"/>
			</g>
		</g>
		<g id="group33-36" transform="translate(206.232,-10.4615)" v:mID="33" v:groupContext="group">
			<v:userDefs>
				<v:ud v:nameU="UMLSuppressOption" v:val="VT0(28):26"/>
				<v:ud v:nameU="UMLTemplate" v:val="VT0(0):26"/>
				<v:ud v:nameU="UMLVersion" v:val="VT0(2):26"/>
				<v:ud v:nameU="UMLShapeType" v:val="VT0(20):26"/>
				<v:ud v:nameU="UMLObjectGUID" v:val="VT4({D46B0702-95B0-49DA-AA7B-F98D773F9706})"/>
				<v:ud v:nameU="UMLError" v:val="VT0(0):26"/>
				<v:ud v:nameU="UMLAutoLockTextEdit" v:val="VT0(1):26"/>
				<v:ud v:nameU="UMLPresOption1" v:val="VT0(179):26"/>
				<v:ud v:nameU="UMLPresOption2" v:val="VT0(0):26"/>
				<v:ud v:nameU="DefaultWidth" v:val="VT0(0.74803149606299):24"/>
				<v:ud v:nameU="EnsureWidthOK" v:val="VT0(0):26"/>
				<v:ud v:nameU="visDescription"
						v:val="VT4(Represents a descriptor for a set of objects with similar structure, behavior and relationships.)"/>
				<v:ud v:nameU="visVersion" v:val="VT0(11):26"/>
			</v:userDefs>
			<title>Class.32</title>
			<g id="shape34-37" v:mID="34" v:groupContext="shape" transform="translate(26.9291,446.191) rotate(180)">
				<title>Sheet.34</title>
			</g>
			<g id="shape35-38" v:mID="35" v:groupContext="shape" transform="translate(26.9291,446.191) rotate(180)">
				<title>Sheet.35</title>
			</g>
			<g id="shape36-39" v:mID="36" v:groupContext="shape" transform="translate(26.9291,446.191) rotate(180)">
				<title>Sheet.36</title>
			</g>
			<g id="shape37-40" v:mID="37" v:groupContext="shape" transform="translate(64.2,443.106) rotate(170.538)">
				<title>Sheet.37</title>
			</g>
			<g id="shape38-41" v:mID="38" v:groupContext="shape">
				<title>Operations</title>
			</g>
			<g id="shape39-43" v:mID="39" v:groupContext="shape">
				<title>Attributes</title>
			</g>
			<g id="shape40-45" v:mID="40" v:groupContext="shape">
				<title>Name</title>
				<desc>Activity</desc>
				<v:textBlock v:margins="rect(1,1,1,1)" v:tabSpace="42.5197"/>
				<v:textRect cx="26.9291" cy="219.481" width="53.86" height="14.4567"/>
				<path d="M0 226.71 L53.86 226.71 L53.86 212.25 L0 212.25 L0 226.71 Z" class="st1"/>
				<text x="12.48" y="221.88" class="st2" v:langID="1031"><v:paragraph v:horizAlign="1"/><v:tabList/>Activity</text>			</g>
			<g id="shape41-48" v:mID="41" v:groupContext="shape" transform="translate(17.8583,-12.6496)">
				<title>Parameters</title>
			</g>
		</g>
		<g id="group42-50" transform="translate(156.626,-24.8)" v:mID="42" v:groupContext="group">
			<v:userDefs>
				<v:ud v:nameU="UMLShapeType" v:val="VT0(22):26"/>
				<v:ud v:nameU="UMLObjectGUID" v:val="VT4({8B60066F-69A0-49DF-BCD9-563D7EA51E58})"/>
				<v:ud v:nameU="UMLError" v:val="VT0(0):26"/>
				<v:ud v:nameU="BeginAngle" v:val="VT0(0.000948053043461):32"/>
				<v:ud v:nameU="DX1" v:val="VT0(0.037946769186652):24"/>
				<v:ud v:nameU="UMLPresOption1" v:val="VT0(2):26"/>
				<v:ud v:nameU="UMLVersion" v:val="VT0(2):26"/>
				<v:ud v:nameU="DY1" v:val="VT0(3.5975544627753E-005):24"/>
				<v:ud v:nameU="visDescription"
						v:val="VT4(Indicates a classification relationship between a more general and a more specific element.)"/>
				<v:ud v:nameU="visVersion" v:val="VT0(11):26"/>
			</v:userDefs>
			<title>Generalization.63</title>
			<g id="shape43-51" v:mID="43" v:groupContext="shape" transform="translate(7.20682,24.8)">
				<title>Discriminator</title>
			</g>
			<g id="shape42-52" v:mID="42" v:groupContext="groupContent">
				<path d="M0 233.77 L10.63 233.77 L10.63 233.82 L49.61 233.82" class="st5"/>
				<path d="M9 239.4 L9 228.15 L0 233.77 L9 239.4 Z" class="st6"/>
			</g>
		</g>
		<g id="group44-56" transform="translate(14.0428,-143.265)" v:mID="44" v:groupContext="group">
			<v:userDefs>
				<v:ud v:nameU="UMLSuppressOption" v:val="VT0(28):26"/>
				<v:ud v:nameU="UMLTemplate" v:val="VT0(0):26"/>
				<v:ud v:nameU="UMLVersion" v:val="VT0(2):26"/>
				<v:ud v:nameU="UMLShapeType" v:val="VT0(20):26"/>
				<v:ud v:nameU="UMLObjectGUID" v:val="VT4({760DEB6E-75AB-4FF0-A542-F40CFB9516E3})"/>
				<v:ud v:nameU="UMLError" v:val="VT0(0):26"/>
				<v:ud v:nameU="UMLAutoLockTextEdit" v:val="VT0(1):26"/>
				<v:ud v:nameU="UMLPresOption1" v:val="VT0(8243):26"/>
				<v:ud v:nameU="UMLPresOption2" v:val="VT0(0):26"/>
				<v:ud v:nameU="DefaultWidth" v:val="VT0(0.74803149606299):24"/>
				<v:ud v:nameU="EnsureWidthOK" v:val="VT0(0):26"/>
				<v:ud v:nameU="visDescription"
						v:val="VT4(Represents a descriptor for a set of objects with similar structure, behavior and relationships.)"/>
				<v:ud v:nameU="visVersion" v:val="VT0(11):26"/>
			</v:userDefs>
			<title>Class.84</title>
			<g id="shape45-57" v:mID="45" v:groupContext="shape" transform="translate(26.9291,446.191) rotate(180)">
				<title>Sheet.45</title>
			</g>
			<g id="shape46-58" v:mID="46" v:groupContext="shape" transform="translate(26.9291,446.191) rotate(180)">
				<title>Sheet.46</title>
			</g>
			<g id="shape47-59" v:mID="47" v:groupContext="shape" transform="translate(26.9291,446.191) rotate(180)">
				<title>Sheet.47</title>
			</g>
			<g id="shape48-60" v:mID="48" v:groupContext="shape" transform="translate(64.2,443.106) rotate(170.538)">
				<title>Sheet.48</title>
			</g>
			<g id="shape49-61" v:mID="49" v:groupContext="shape">
				<title>Operations</title>
			</g>
			<g id="shape50-63" v:mID="50" v:groupContext="shape">
				<title>Attributes</title>
			</g>
			<g id="shape51-65" v:mID="51" v:groupContext="shape">
				<title>Name</title>
				<desc>EntityType</desc>
				<v:textBlock v:margins="rect(1,1,1,1)" v:tabSpace="42.5197"/>
				<v:textRect cx="26.9291" cy="219.481" width="53.86" height="14.4567"/>
				<path d="M0 226.71 L53.86 226.71 L53.86 212.25 L0 212.25 L0 226.71 Z" class="st1"/>
				<text x="6.48" y="221.88" class="st2" v:langID="1031"><v:paragraph v:horizAlign="1"/><v:tabList/>EntityType</text>			</g>
			<g id="shape52-68" v:mID="52" v:groupContext="shape" transform="translate(17.8583,-12.6496)">
				<title>Parameters</title>
			</g>
		</g>
		<g id="group53-70" transform="translate(34.5756,-143.265)" v:mID="53" v:groupContext="group">
			<v:userDefs>
				<v:ud v:nameU="UMLShapeType" v:val="VT0(23):26"/>
				<v:ud v:nameU="UMLObjectGUID" v:val="VT4({80C15486-EF15-4453-BFC7-5ED48E95AFEB})"/>
				<v:ud v:nameU="UMLError" v:val="VT0(0):26"/>
				<v:ud v:nameU="BeginAngle" v:val="VT0(-1.5726499558593):32"/>
				<v:ud v:nameU="EndAngle" v:val="VT0(-1.5726499558592):32"/>
				<v:ud v:nameU="UMLPresOption1" v:val="VT0(33280):26"/>
				<v:ud v:nameU="UMLSuppressOption" v:val="VT0(0):26"/>
				<v:ud v:nameU="Navigability" v:val="VT0(0):26"/>
				<v:ud v:nameU="UMLVersion" v:val="VT0(2):26"/>
				<v:ud v:nameU="DX1" v:val="VT0(-5.0028172606187E-005):24"/>
				<v:ud v:nameU="DY1" v:val="VT0(-0.026989280795042):24"/>
				<v:ud v:nameU="DX3" v:val="VT0(-5.0028172605299E-005):24"/>
				<v:ud v:nameU="DY3" v:val="VT0(-0.026989280795037):24"/>
				<v:ud v:nameU="visDescription" v:val="VT4(Represents an association between two classifiers.)"/>
				<v:ud v:nameU="visVersion" v:val="VT0(11):26"/>
			</v:userDefs>
			<title>Binary Association.93</title>
			<g id="shape54-71" v:mID="54" v:groupContext="shape" transform="translate(-1.99009,24.6474)">
				<title>end1_name</title>
				<desc>type</desc>
				<v:textBlock v:margins="rect(4,4,4,4)" v:tabSpace="42.5197"/>
				<v:textRect cx="12.6736" cy="217.908" width="25.35" height="17.6036"/>
				<text x="5.11" y="220.31" class="st7" v:langID="1031"><v:paragraph v:horizAlign="1"/><v:tabList/>type</text>			</g>
			<g id="shape55-73" v:mID="55" v:groupContext="shape" transform="translate(-26.8477,24.6285)">
				<title>end1_mp</title>
				<desc>1</desc>
				<v:textBlock v:margins="rect(4,4,4,4)" v:tabSpace="42.5197"/>
				<v:textRect cx="7.33766" cy="217.908" width="14.68" height="17.6036"/>
				<text x="5.11" y="220.31" class="st7" v:langID="1031"><v:paragraph v:horizAlign="1"/><v:tabList/>1</text>			</g>
			<g id="shape56-75" v:mID="56" v:groupContext="shape" transform="translate(-2.00081,52.1459)">
				<title>end2_name</title>
			</g>
			<g id="shape57-76" v:mID="57" v:groupContext="shape" transform="translate(-25.5225,52.127)">
				<title>end2_mp</title>
				<desc>*</desc>
				<v:textBlock v:margins="rect(4,4,4,4)" v:tabSpace="42.5197"/>
				<v:textRect cx="6.66969" cy="217.908" width="13.34" height="17.6036"/>
				<text x="5.11" y="220.31" class="st7" v:langID="1031"><v:paragraph v:horizAlign="1"/><v:tabList/>*</text>			</g>
			<g id="shape53-78" v:mID="53" v:groupContext="groupContent">
				<path d="M-7.07 226.71 L-7.07 237.34 L-7.11 237.34 L-7.11 285.88" class="st5"/>
			</g>
		</g>
		<g id="group63-81" transform="translate(189.26,-127.745)" v:mID="63" v:groupContext="group">
			<v:userDefs>
				<v:ud v:nameU="UMLSuppressOption" v:val="VT0(28):26"/>
				<v:ud v:nameU="UMLTemplate" v:val="VT0(0):26"/>
				<v:ud v:nameU="UMLVersion" v:val="VT0(2):26"/>
				<v:ud v:nameU="UMLShapeType" v:val="VT0(20):26"/>
				<v:ud v:nameU="UMLObjectGUID" v:val="VT4({BDCF2CFB-0FA6-4751-8AFD-926CDF91F689})"/>
				<v:ud v:nameU="UMLError" v:val="VT0(0):26"/>
				<v:ud v:nameU="UMLAutoLockTextEdit" v:val="VT0(1):26"/>
				<v:ud v:nameU="UMLPresOption1" v:val="VT0(179):26"/>
				<v:ud v:nameU="UMLPresOption2" v:val="VT0(0):26"/>
				<v:ud v:nameU="DefaultWidth" v:val="VT0(0.74803149606299):24"/>
				<v:ud v:nameU="EnsureWidthOK" v:val="VT0(0):26"/>
				<v:ud v:nameU="visDescription"
						v:val="VT4(Represents a descriptor for a set of objects with similar structure, behavior and relationships.)"/>
				<v:ud v:nameU="visVersion" v:val="VT0(11):26"/>
			</v:userDefs>
			<title>Class.103</title>
			<g id="shape64-82" v:mID="64" v:groupContext="shape" transform="translate(26.9291,446.191) rotate(180)">
				<title>Sheet.64</title>
			</g>
			<g id="shape65-83" v:mID="65" v:groupContext="shape" transform="translate(26.9291,446.191) rotate(180)">
				<title>Sheet.65</title>
			</g>
			<g id="shape66-84" v:mID="66" v:groupContext="shape" transform="translate(26.9291,446.191) rotate(180)">
				<title>Sheet.66</title>
			</g>
			<g id="shape67-85" v:mID="67" v:groupContext="shape" transform="translate(64.2,443.106) rotate(170.538)">
				<title>Sheet.67</title>
			</g>
			<g id="shape68-86" v:mID="68" v:groupContext="shape">
				<title>Operations</title>
			</g>
			<g id="shape69-88" v:mID="69" v:groupContext="shape">
				<title>Attributes</title>
			</g>
			<g id="shape70-90" v:mID="70" v:groupContext="shape">
				<title>Name</title>
				<desc>ActivityType</desc>
				<v:textBlock v:margins="rect(1,1,1,1)" v:tabSpace="42.5197"/>
				<v:textRect cx="26.9291" cy="219.481" width="53.86" height="14.4567"/>
				<path d="M0 226.71 L53.86 226.71 L53.86 212.25 L0 212.25 L0 226.71 Z" class="st1"/>
				<text x="3.14" y="221.88" class="st8" v:langID="1031"><v:paragraph v:horizAlign="1"/><v:tabList/>ActivityType</text>			</g>
			<g id="shape71-93" v:mID="71" v:groupContext="shape" transform="translate(17.8583,-12.6496)">
				<title>Parameters</title>
			</g>
		</g>
		<g id="group72-95" transform="translate(158.043,-142.166)" v:mID="72" v:groupContext="group">
			<v:userDefs>
				<v:ud v:nameU="UMLShapeType" v:val="VT0(22):26"/>
				<v:ud v:nameU="UMLObjectGUID" v:val="VT4({0BD10924-22BE-4400-87B6-85C15BC48F9F})"/>
				<v:ud v:nameU="UMLError" v:val="VT0(0):26"/>
				<v:ud v:nameU="BeginAngle" v:val="VT0(-0.005869640870856):32"/>
				<v:ud v:nameU="DX1" v:val="VT0(0.025564171155316):24"/>
				<v:ud v:nameU="UMLPresOption1" v:val="VT0(2):26"/>
				<v:ud v:nameU="UMLVersion" v:val="VT0(2):26"/>
				<v:ud v:nameU="DY1" v:val="VT0(-0.0001500516422257):24"/>
				<v:ud v:nameU="visDescription"
						v:val="VT4(Indicates a classification relationship between a more general and a more specific element.)"/>
				<v:ud v:nameU="visVersion" v:val="VT0(11):26"/>
			</v:userDefs>
			<title>Generalization.117</title>
			<g id="shape73-96" v:mID="73" v:groupContext="shape" transform="translate(7.15761,24.8)">
				<title>Discriminator</title>
			</g>
			<g id="shape72-97" v:mID="72" v:groupContext="groupContent">
				<path d="M0 233.69 L10.63 233.69 L10.63 233.9 L31.22 233.9" class="st5"/>
				<path d="M9 239.31 L9 228.06 L0 233.69 L9 239.31 Z" class="st6"/>
			</g>
		</g>
		<g id="group76-101" transform="translate(104.185,-127.958)" v:mID="76" v:groupContext="group">
			<v:userDefs>
				<v:ud v:nameU="UMLSuppressOption" v:val="VT0(28):26"/>
				<v:ud v:nameU="UMLTemplate" v:val="VT0(0):26"/>
				<v:ud v:nameU="UMLVersion" v:val="VT0(2):26"/>
				<v:ud v:nameU="UMLShapeType" v:val="VT0(20):26"/>
				<v:ud v:nameU="UMLObjectGUID" v:val="VT4({A0A9A3C1-BD76-4D2E-9510-A7D38905B2AD})"/>
				<v:ud v:nameU="UMLError" v:val="VT0(0):26"/>
				<v:ud v:nameU="UMLAutoLockTextEdit" v:val="VT0(1):26"/>
				<v:ud v:nameU="UMLPresOption1" v:val="VT0(8243):26"/>
				<v:ud v:nameU="UMLPresOption2" v:val="VT0(0):26"/>
				<v:ud v:nameU="DefaultWidth" v:val="VT0(0.74803149606299):24"/>
				<v:ud v:nameU="EnsureWidthOK" v:val="VT0(0):26"/>
				<v:ud v:nameU="visDescription"
						v:val="VT4(Represents a descriptor for a set of objects with similar structure, behavior and relationships.)"/>
				<v:ud v:nameU="visVersion" v:val="VT0(11):26"/>
			</v:userDefs>
			<title>Class.152</title>
			<g id="shape77-102" v:mID="77" v:groupContext="shape" transform="translate(26.9291,446.191) rotate(180)">
				<title>Sheet.77</title>
			</g>
			<g id="shape78-103" v:mID="78" v:groupContext="shape" transform="translate(26.9291,446.191) rotate(180)">
				<title>Sheet.78</title>
			</g>
			<g id="shape79-104" v:mID="79" v:groupContext="shape" transform="translate(26.9291,446.191) rotate(180)">
				<title>Sheet.79</title>
			</g>
			<g id="shape80-105" v:mID="80" v:groupContext="shape" transform="translate(64.2,443.106) rotate(170.538)">
				<title>Sheet.80</title>
			</g>
			<g id="shape81-106" v:mID="81" v:groupContext="shape">
				<title>Operations</title>
			</g>
			<g id="shape82-108" v:mID="82" v:groupContext="shape">
				<title>Attributes</title>
			</g>
			<g id="shape83-110" v:mID="83" v:groupContext="shape">
				<title>Name</title>
				<desc>EventType</desc>
				<v:textBlock v:margins="rect(1,1,1,1)" v:tabSpace="42.5197"/>
				<v:textRect cx="26.9291" cy="219.481" width="53.86" height="14.4567"/>
				<path d="M0 226.71 L53.86 226.71 L53.86 212.25 L0 212.25 L0 226.71 Z" class="st1"/>
				<text x="6.7" y="221.88" class="st8" v:langID="1031"><v:paragraph v:horizAlign="1"/><v:tabList/>EventType</text>			</g>
			<g id="shape84-113" v:mID="84" v:groupContext="shape" transform="translate(17.8583,-12.6496)">
				<title>Parameters</title>
			</g>
		</g>
		<g id="group90-115" transform="translate(104.185,-96.7765)" v:mID="90" v:groupContext="group">
			<v:userDefs>
				<v:ud v:nameU="UMLSuppressOption" v:val="VT0(28):26"/>
				<v:ud v:nameU="UMLTemplate" v:val="VT0(0):26"/>
				<v:ud v:nameU="UMLVersion" v:val="VT0(2):26"/>
				<v:ud v:nameU="UMLShapeType" v:val="VT0(20):26"/>
				<v:ud v:nameU="UMLObjectGUID" v:val="VT4({72FF1D91-77D2-4D90-AA36-25716975891D})"/>
				<v:ud v:nameU="UMLError" v:val="VT0(0):26"/>
				<v:ud v:nameU="UMLAutoLockTextEdit" v:val="VT0(1):26"/>
				<v:ud v:nameU="UMLPresOption1" v:val="VT0(8243):26"/>
				<v:ud v:nameU="UMLPresOption2" v:val="VT0(0):26"/>
				<v:ud v:nameU="DefaultWidth" v:val="VT0(0.74803149606299):24"/>
				<v:ud v:nameU="EnsureWidthOK" v:val="VT0(0):26"/>
				<v:ud v:nameU="visDescription"
						v:val="VT4(Represents a descriptor for a set of objects with similar structure, behavior and relationships.)"/>
				<v:ud v:nameU="visVersion" v:val="VT0(11):26"/>
			</v:userDefs>
			<title>Class.242</title>
			<g id="shape91-116" v:mID="91" v:groupContext="shape" transform="translate(26.9291,446.191) rotate(180)">
				<title>Sheet.91</title>
			</g>
			<g id="shape92-117" v:mID="92" v:groupContext="shape" transform="translate(26.9291,446.191) rotate(180)">
				<title>Sheet.92</title>
			</g>
			<g id="shape93-118" v:mID="93" v:groupContext="shape" transform="translate(26.9291,446.191) rotate(180)">
				<title>Sheet.93</title>
			</g>
			<g id="shape94-119" v:mID="94" v:groupContext="shape" transform="translate(64.2,443.106) rotate(170.538)">
				<title>Sheet.94</title>
			</g>
			<g id="shape95-120" v:mID="95" v:groupContext="shape">
				<title>Operations</title>
			</g>
			<g id="shape96-122" v:mID="96" v:groupContext="shape">
				<title>Attributes</title>
			</g>
			<g id="shape97-124" v:mID="97" v:groupContext="shape">
				<title>Name</title>
				<desc>Object</desc>
				<v:textBlock v:margins="rect(1,1,1,1)" v:tabSpace="42.5197"/>
				<v:textRect cx="26.9291" cy="219.481" width="53.86" height="14.4567"/>
				<path d="M0 226.71 L53.86 226.71 L53.86 212.25 L0 212.25 L0 226.71 Z" class="st1"/>
				<text x="14.48" y="221.88" class="st2" v:langID="1031"><v:paragraph v:horizAlign="1"/><v:tabList/>Object</text>			</g>
			<g id="shape98-127" v:mID="98" v:groupContext="shape" transform="translate(17.8583,-12.6496)">
				<title>Parameters</title>
			</g>
		</g>
		<g id="group99-129" transform="translate(75.4558,-66.2637)" v:mID="99" v:groupContext="group">
			<v:userDefs>
				<v:ud v:nameU="UMLShapeType" v:val="VT0(22):26"/>
				<v:ud v:nameU="UMLObjectGUID" v:val="VT4({9F59343E-D7C9-48DB-B40F-4AF01479EBE4})"/>
				<v:ud v:nameU="UMLError" v:val="VT0(0):26"/>
				<v:ud v:nameU="BeginAngle" v:val="VT0(0):32"/>
				<v:ud v:nameU="DX1" v:val="VT0(0.055391571837774):24"/>
				<v:ud v:nameU="UMLPresOption1" v:val="VT0(2):26"/>
				<v:ud v:nameU="UMLVersion" v:val="VT0(2):26"/>
				<v:ud v:nameU="DY1" v:val="VT0(0):24"/>
				<v:ud v:nameU="visDescription"
						v:val="VT4(Indicates a classification relationship between a more general and a more specific element.)"/>
				<v:ud v:nameU="visVersion" v:val="VT0(11):26"/>
			</v:userDefs>
			<title>Generalization.251</title>
			<g id="shape100-130" v:mID="100" v:groupContext="shape" transform="translate(7.2,24.8)">
				<title>Discriminator</title>
			</g>
			<g id="shape99-131" v:mID="99" v:groupContext="groupContent">
				<path d="M0 226.71 L17.39 226.71 L17.39 188.97 L28.73 188.97" class="st5"/>
				<path d="M9 232.33 L9 221.08 L0 226.71 L9 232.33 Z" class="st6"/>
			</g>
		</g>
		<g id="group156-135" transform="translate(0.72,-210.446)" v:mID="156" v:groupContext="group">
			<v:userDefs>
				<v:ud v:nameU="UMLSuppressOption" v:val="VT0(28):26"/>
				<v:ud v:nameU="UMLTemplate" v:val="VT0(0):26"/>
				<v:ud v:nameU="UMLVersion" v:val="VT0(2):26"/>
				<v:ud v:nameU="UMLShapeType" v:val="VT0(20):26"/>
				<v:ud v:nameU="UMLObjectGUID" v:val="VT4({BA80D8AE-2C2D-4F41-A4F2-87F33F2DD8FF})"/>
				<v:ud v:nameU="UMLError" v:val="VT0(0):26"/>
				<v:ud v:nameU="UMLAutoLockTextEdit" v:val="VT0(1):26"/>
				<v:ud v:nameU="UMLPresOption1" v:val="VT0(51):26"/>
				<v:ud v:nameU="UMLPresOption2" v:val="VT0(0):26"/>
				<v:ud v:nameU="DefaultWidth" v:val="VT0(0.74803149606299):24"/>
				<v:ud v:nameU="EnsureWidthOK" v:val="VT0(0.75):0"/>
				<v:ud v:nameU="visDescription"
						v:val="VT4(Represents a descriptor for a set of objects with similar structure, behavior and relationships.)"/>
				<v:ud v:nameU="visVersion" v:val="VT0(14):26"/>
			</v:userDefs>
			<title>Class.156</title>
			<g id="shape157-136" v:mID="157" v:groupContext="shape" transform="translate(26.9291,446.191) rotate(180)">
				<title>Sheet.157</title>
			</g>
			<g id="shape158-137" v:mID="158" v:groupContext="shape" transform="translate(26.9291,446.191) rotate(180)">
				<title>Sheet.158</title>
			</g>
			<g id="shape159-138" v:mID="159" v:groupContext="shape" transform="translate(26.9291,446.191) rotate(180)">
				<title>Sheet.159</title>
			</g>
			<g id="shape160-139" v:mID="160" v:groupContext="shape" transform="translate(64.2,443.106) rotate(170.538)">
				<title>Sheet.160</title>
			</g>
			<g id="shape161-140" v:mID="161" v:groupContext="shape">
				<title>Operations</title>
			</g>
			<g id="shape162-142" v:mID="162" v:groupContext="shape">
				<title>Attributes</title>
			</g>
			<g id="shape163-144" v:mID="163" v:groupContext="shape">
				<title>Name</title>
				<desc>Property</desc>
				<v:textBlock v:margins="rect(1,1,1,1)" v:tabSpace="42.5197"/>
				<v:textRect cx="26.9291" cy="219.481" width="53.86" height="14.4567"/>
				<path d="M0 226.71 L53.86 226.71 L53.86 212.25 L0 212.25 L0 226.71 Z" class="st1"/>
				<text x="12.36" y="221.88" class="st9" v:langID="1031"><v:paragraph v:horizAlign="1"/><v:tabList/>Property</text>			</g>
			<g id="shape164-147" v:mID="164" v:groupContext="shape" transform="translate(17.8583,-12.6496)">
				<title>Parameters</title>
			</g>
		</g>
		<g id="group165-149" transform="translate(20.4917,-157.721)" v:mID="165" v:groupContext="group">
			<v:userDefs>
				<v:ud v:nameU="UMLShapeType" v:val="VT0(33):26"/>
				<v:ud v:nameU="UMLObjectGUID" v:val="VT4({1C080089-853B-4B92-A078-B675B6DEDBE4})"/>
				<v:ud v:nameU="UMLError" v:val="VT0(0):26"/>
				<v:ud v:nameU="BeginAngle" v:val="VT0(1.5707963267949):32"/>
				<v:ud v:nameU="EndAngle" v:val="VT0(1.5707963267949):32"/>
				<v:ud v:nameU="UMLPresOption1" v:val="VT0(512):26"/>
				<v:ud v:nameU="UMLSuppressOption" v:val="VT0(1):26"/>
				<v:ud v:nameU="Navigability" v:val="VT0(0):26"/>
				<v:ud v:nameU="UMLVersion" v:val="VT0(2):26"/>
				<v:ud v:nameU="DX1" v:val="VT0(-1.1102230246252E-016):24"/>
				<v:ud v:nameU="DY1" v:val="VT0(0.022027559055116):24"/>
				<v:ud v:nameU="DX3" v:val="VT0(5.5511151231258E-017):24"/>
				<v:ud v:nameU="DY3" v:val="VT0(0.022027559055118):24"/>
				<v:ud v:nameU="visDescription"
						v:val="VT4(Represents a form of aggregation with strong ownership and coincident lifetime of the part with the whole.)"/>
				<v:ud v:nameU="visVersion" v:val="VT0(14):26"/>
			</v:userDefs>
			<title>Composition.165</title>
			<g id="shape166-150" v:mID="166" v:groupContext="shape" transform="translate(-6.07542,-6.67715)">
				<title>end1_name</title>
			</g>
			<g id="shape167-151" v:mID="167" v:groupContext="shape" transform="translate(12.1069,-6.67715)">
				<title>end1_mp</title>
				<desc>1</desc>
				<v:textBlock v:margins="rect(4,4,4,4)" v:tabSpace="42.5197"/>
				<v:textRect cx="6.9335" cy="217.908" width="13.87" height="17.6036"/>
			</g>
			<g id="shape168-152" v:mID="168" v:groupContext="shape" transform="translate(-5.93369,-28.4473)">
				<title>end2_name</title>
			</g>
			<g id="shape169-153" v:mID="169" v:groupContext="shape" transform="translate(12.2486,-28.4437)">
				<title>end2_mp</title>
				<desc>*</desc>
				<v:textBlock v:margins="rect(4,4,4,4)" v:tabSpace="42.5197"/>
				<v:textRect cx="6.89835" cy="217.908" width="13.8" height="17.6036"/>
				<text x="4.91" y="220.31" class="st3" v:langID="1031"><v:paragraph v:horizAlign="1"/><v:tabList/>*</text>			</g>
			<g id="shape165-155" v:mID="165" v:groupContext="groupContent">
				<path d="M7.02 226.71 L7.02 216.08 L7.16 216.08 L7.16 173.99" class="st5"/>
				<path d="M10.62 221.08 L7.02 226.71 L3.42 221.08 L7.02 215.46 L10.62 221.08 Z" class="st10"/>
			</g>
		</g>
		<g id="group179-159" transform="translate(54.4365,-157.721)" v:mID="179" v:groupContext="group">
			<v:userDefs>
				<v:ud v:nameU="UMLShapeType" v:val="VT0(33):26"/>
				<v:ud v:nameU="UMLObjectGUID" v:val="VT4({1C080089-853B-4B92-A078-B675B6DEDBE4})"/>
				<v:ud v:nameU="UMLError" v:val="VT0(0):26"/>
				<v:ud v:nameU="BeginAngle" v:val="VT0(1.5735511507162):32"/>
				<v:ud v:nameU="EndAngle" v:val="VT0(0.0027548239212923):32"/>
				<v:ud v:nameU="UMLPresOption1" v:val="VT0(512):26"/>
				<v:ud v:nameU="UMLSuppressOption" v:val="VT0(1):26"/>
				<v:ud v:nameU="Navigability" v:val="VT0(0):26"/>
				<v:ud v:nameU="UMLVersion" v:val="VT0(2):26"/>
				<v:ud v:nameU="DX1" v:val="VT0(-5.9213654481916E-005):24"/>
				<v:ud v:nameU="DY1" v:val="VT0(0.021494478914379):24"/>
				<v:ud v:nameU="DX3" v:val="VT0(0.021494478914385):24"/>
				<v:ud v:nameU="DY3" v:val="VT0(5.9213654481027E-005):24"/>
				<v:ud v:nameU="visDescription"
						v:val="VT4(Represents a form of aggregation with strong ownership and coincident lifetime of the part with the whole.)"/>
				<v:ud v:nameU="visVersion" v:val="VT0(14):26"/>
			</v:userDefs>
			<title>Composition.179</title>
			<g id="shape180-160" v:mID="180" v:groupContext="shape" transform="translate(-13.1094,-6.62473)">
				<title>end1_name</title>
			</g>
			<g id="shape181-161" v:mID="181" v:groupContext="shape" transform="translate(5.07286,-6.65278)">
				<title>end1_mp</title>
				<desc>1</desc>
				<v:textBlock v:margins="rect(4,4,4,4)" v:tabSpace="42.5197"/>
				<v:textRect cx="6.9335" cy="217.908" width="13.87" height="17.6036"/>
			</g>
			<g id="shape182-162" v:mID="182" v:groupContext="shape" transform="translate(9.58344,-32.2855)">
				<title>end2_name</title>
			</g>
			<g id="shape183-163" v:mID="183" v:groupContext="shape" transform="translate(3.8148,-4.4996)">
				<title>end2_mp</title>
				<desc>*</desc>
				<v:textBlock v:margins="rect(4,4,4,4)" v:tabSpace="42.5197"/>
				<v:textRect cx="6.89835" cy="217.908" width="13.8" height="17.6036"/>
				<text x="4.91" y="220.31" class="st3" v:langID="1031"><v:paragraph v:horizAlign="1"/><v:tabList/>*</text>			</g>
			<g id="shape179-165" v:mID="179" v:groupContext="groupContent">
				<path d="M0 226.71 L0 199.5 L24.24 199.5" class="st5"/>
				<path d="M3.6 221.08 L0 226.71 L-3.6 221.08 L0 215.46 L3.6 221.08 Z" class="st10"/>
			</g>
		</g>
		<g id="group170-169" transform="translate(78.6728,-177.706)" v:mID="170" v:groupContext="group">
			<v:userDefs>
				<v:ud v:nameU="UMLSuppressOption" v:val="VT0(28):26"/>
				<v:ud v:nameU="UMLTemplate" v:val="VT0(0):26"/>
				<v:ud v:nameU="UMLVersion" v:val="VT0(2):26"/>
				<v:ud v:nameU="UMLShapeType" v:val="VT0(20):26"/>
				<v:ud v:nameU="UMLObjectGUID" v:val="VT4({97265E7D-4811-497C-BD25-6838650823FB})"/>
				<v:ud v:nameU="UMLError" v:val="VT0(0):26"/>
				<v:ud v:nameU="UMLAutoLockTextEdit" v:val="VT0(1):26"/>
				<v:ud v:nameU="UMLPresOption1" v:val="VT0(51):26"/>
				<v:ud v:nameU="UMLPresOption2" v:val="VT0(0):26"/>
				<v:ud v:nameU="DefaultWidth" v:val="VT0(0.74803149606299):24"/>
				<v:ud v:nameU="EnsureWidthOK" v:val="VT0(0.75):0"/>
				<v:ud v:nameU="visDescription"
						v:val="VT4(Represents a descriptor for a set of objects with similar structure, behavior and relationships.)"/>
				<v:ud v:nameU="visVersion" v:val="VT0(14):26"/>
			</v:userDefs>
			<title>Class.170</title>
			<g id="shape171-170" v:mID="171" v:groupContext="shape" transform="translate(26.9291,446.191) rotate(180)">
				<title>Sheet.171</title>
			</g>
			<g id="shape172-171" v:mID="172" v:groupContext="shape" transform="translate(26.9291,446.191) rotate(180)">
				<title>Sheet.172</title>
			</g>
			<g id="shape173-172" v:mID="173" v:groupContext="shape" transform="translate(26.9291,446.191) rotate(180)">
				<title>Sheet.173</title>
			</g>
			<g id="shape174-173" v:mID="174" v:groupContext="shape" transform="translate(64.2,443.106) rotate(170.538)">
				<title>Sheet.174</title>
			</g>
			<g id="shape175-174" v:mID="175" v:groupContext="shape">
				<title>Operations</title>
			</g>
			<g id="shape176-176" v:mID="176" v:groupContext="shape">
				<title>Attributes</title>
			</g>
			<g id="shape177-178" v:mID="177" v:groupContext="shape">
				<title>Name</title>
				<desc>Operation</desc>
				<v:textBlock v:margins="rect(1,1,1,1)" v:tabSpace="42.5197"/>
				<v:textRect cx="26.9291" cy="219.481" width="53.86" height="14.4567"/>
				<path d="M0 226.71 L53.86 226.71 L53.86 212.25 L0 212.25 L0 226.71 Z" class="st1"/>
				<text x="10" y="221.88" class="st9" v:langID="1031"><v:paragraph v:horizAlign="1"/><v:tabList/>Operation</text>			</g>
			<g id="shape178-181" v:mID="178" v:groupContext="shape" transform="translate(17.8583,-12.6496)">
				<title>Parameters</title>
			</g>
		</g>
		<g id="group189-183" transform="translate(104.185,-152.194)" v:mID="189" v:groupContext="group">
			<v:userDefs>
				<v:ud v:nameU="UMLSuppressOption" v:val="VT0(28):26"/>
				<v:ud v:nameU="UMLTemplate" v:val="VT0(0):26"/>
				<v:ud v:nameU="UMLVersion" v:val="VT0(2):26"/>
				<v:ud v:nameU="UMLShapeType" v:val="VT0(20):26"/>
				<v:ud v:nameU="UMLObjectGUID" v:val="VT4({2182D7C1-1186-45F2-A8EF-FE11FBD06E95})"/>
				<v:ud v:nameU="UMLError" v:val="VT0(0):26"/>
				<v:ud v:nameU="UMLAutoLockTextEdit" v:val="VT0(1):26"/>
				<v:ud v:nameU="UMLPresOption1" v:val="VT0(51):26"/>
				<v:ud v:nameU="UMLPresOption2" v:val="VT0(0):26"/>
				<v:ud v:nameU="DefaultWidth" v:val="VT0(0.74803149606299):24"/>
				<v:ud v:nameU="EnsureWidthOK" v:val="VT0(0.75):0"/>
				<v:ud v:nameU="visDescription"
						v:val="VT4(Represents a descriptor for a set of objects with similar structure, behavior and relationships.)"/>
				<v:ud v:nameU="visVersion" v:val="VT0(14):26"/>
			</v:userDefs>
			<title>Class.189</title>
			<g id="shape190-184" v:mID="190" v:groupContext="shape" transform="translate(26.9291,446.191) rotate(180)">
				<title>Sheet.190</title>
			</g>
			<g id="shape191-185" v:mID="191" v:groupContext="shape" transform="translate(26.9291,446.191) rotate(180)">
				<title>Sheet.191</title>
			</g>
			<g id="shape192-186" v:mID="192" v:groupContext="shape" transform="translate(26.9291,446.191) rotate(180)">
				<title>Sheet.192</title>
			</g>
			<g id="shape193-187" v:mID="193" v:groupContext="shape" transform="translate(64.2,443.106) rotate(170.538)">
				<title>Sheet.193</title>
			</g>
			<g id="shape194-188" v:mID="194" v:groupContext="shape">
				<title>Operations</title>
			</g>
			<g id="shape195-190" v:mID="195" v:groupContext="shape">
				<title>Attributes</title>
			</g>
			<g id="shape196-192" v:mID="196" v:groupContext="shape">
				<title>Name</title>
				<desc>ObjectType</desc>
				<v:textBlock v:margins="rect(1,1,1,1)" v:tabSpace="42.5197"/>
				<v:textRect cx="26.9291" cy="219.481" width="53.86" height="14.4567"/>
				<path d="M0 226.71 L53.86 226.71 L53.86 212.25 L0 212.25 L0 226.71 Z" class="st1"/>
				<text x="7.95" y="221.88" class="st9" v:langID="1031"><v:paragraph v:horizAlign="1"/><v:tabList/>ObjectType</text>			</g>
			<g id="shape197-195" v:mID="197" v:groupContext="shape" transform="translate(17.8583,-12.6496)">
				<title>Parameters</title>
			</g>
		</g>
		<g id="group198-197" transform="translate(67.9011,-147.871)" v:mID="198" v:groupContext="group">
			<v:userDefs>
				<v:ud v:nameU="UMLShapeType" v:val="VT0(22):26"/>
				<v:ud v:nameU="UMLObjectGUID" v:val="VT4({242DEA32-A540-4722-8DE4-AB000427A45B})"/>
				<v:ud v:nameU="UMLError" v:val="VT0(0):26"/>
				<v:ud v:nameU="BeginAngle" v:val="VT0(1.1786693761956E-014):32"/>
				<v:ud v:nameU="DX1" v:val="VT0(0.037677165354331):24"/>
				<v:ud v:nameU="UMLPresOption1" v:val="VT0(2):26"/>
				<v:ud v:nameU="UMLVersion" v:val="VT0(2):26"/>
				<v:ud v:nameU="DY1" v:val="VT0(4.4408920985006E-016):24"/>
				<v:ud v:nameU="visDescription"
						v:val="VT4(Indicates a classification relationship between a more general and a more specific element.)"/>
				<v:ud v:nameU="visVersion" v:val="VT0(14):26"/>
			</v:userDefs>
			<title>Generalization.198</title>
			<g id="shape199-198" v:mID="199" v:groupContext="shape" transform="translate(7.2,24.8)">
				<title>Discriminator</title>
			</g>
			<g id="shape198-199" v:mID="198" v:groupContext="groupContent">
				<path d="M0 224.09 L19.28 224.09 L19.28 215.16 L36.28 215.16" class="st5"/>
			</g>
		</g>
		<g id="group85-202" transform="translate(67.9011,-150.493)" v:mID="85" v:groupContext="group">
			<v:userDefs>
				<v:ud v:nameU="UMLShapeType" v:val="VT0(22):26"/>
				<v:ud v:nameU="UMLObjectGUID" v:val="VT4({852ECF58-46B6-49B6-A91F-C1BE451CB0D3})"/>
				<v:ud v:nameU="UMLError" v:val="VT0(0):26"/>
				<v:ud v:nameU="BeginAngle" v:val="VT0(2.0659095110243E-014):32"/>
				<v:ud v:nameU="DX1" v:val="VT0(0.042992125984248):24"/>
				<v:ud v:nameU="UMLPresOption1" v:val="VT0(2):26"/>
				<v:ud v:nameU="UMLVersion" v:val="VT0(2):26"/>
				<v:ud v:nameU="DY1" v:val="VT0(0):24"/>
				<v:ud v:nameU="visDescription"
						v:val="VT4(Indicates a classification relationship between a more general and a more specific element.)"/>
				<v:ud v:nameU="visVersion" v:val="VT0(11):26"/>
			</v:userDefs>
			<title>Generalization.161</title>
			<g id="shape86-203" v:mID="86" v:groupContext="shape" transform="translate(7.2,24.8)">
				<title>Discriminator</title>
			</g>
			<g id="shape85-204" v:mID="85" v:groupContext="groupContent">
				<path d="M0 226.71 L19.42 226.71 L19.42 242.02 L36.28 242.02" class="st5"/>
				<path d="M9 232.33 L9 221.08 L0 226.71 L9 232.33 Z" class="st6"/>
			</g>
		</g>
	</g>
</svg>
